One code to rule them all (┛ಠ_ಠ)┛彡O - 7 Cleaning our data in R
…
penguins <-
  na.omit(penguins) #I must add this because there are NAs within this data set and these functions will not work otherwise 

select()

Let’s start by selecting for only the columns we are interested in. This can be useful when removing variables we are not currently interested in. Remember, at any manipulation, you can save the changes as a new object which will maintain the integrity of the original if you must back track for whatever reason.

In this example, we use the select function to choose which columns we want to look at.

# select()
penguins %>% #From the penguins data set
  select(species, bill_length_mm, year) # selecting columns species, bill_length, and      year 

# A tibble: 333 × 3
   species bill_length_mm  year
   <fct>            <dbl> <int>
 1 Adelie            39.1  2007
 2 Adelie            39.5  2007
 3 Adelie            40.3  2007
 4 Adelie            36.7  2007
 5 Adelie            39.3  2007
 6 Adelie            38.9  2007
 7 Adelie            39.2  2007
 8 Adelie            41.1  2007
 9 Adelie            38.6  2007
10 Adelie            34.6  2007
# … with 323 more rows

Now that we have selected for certain columns, let’s say we want to view everything except for one or several columns. Instead of typing out every column we want, we can simple type out the one(s) we don’t.

In this example, I tell R to remove the sex column using the select function again.

# select()
penguins %>% #From the penguins data set
  select(-sex)# selecting all columns except for sex

# A tibble: 333 × 7
   species island    bill_length_mm bill_depth_mm flipper_length…¹ body_…²  year
   <fct>   <fct>              <dbl>         <dbl>            <int>   <int> <int>
 1 Adelie  Torgersen           39.1          18.7              181    3750  2007
 2 Adelie  Torgersen           39.5          17.4              186    3800  2007
 3 Adelie  Torgersen           40.3          18                195    3250  2007
 4 Adelie  Torgersen           36.7          19.3              193    3450  2007
 5 Adelie  Torgersen           39.3          20.6              190    3650  2007
 6 Adelie  Torgersen           38.9          17.8              181    3625  2007
 7 Adelie  Torgersen           39.2          19.6              195    4675  2007
 8 Adelie  Torgersen           41.1          17.6              182    3200  2007
 9 Adelie  Torgersen           38.6          21.2              191    3800  2007
10 Adelie  Torgersen           34.6          21.1              198    4400  2007
# … with 323 more rows, and abbreviated variable names ¹​flipper_length_mm,
#   ²​body_mass_g

Within the select function, you can also look for items based on their spelling. This can be especially helpful if you suspect there to be a spelling error somewhere if your data set. In this example, we will search our data set for any variable name that starts with the letter ‘b’.

# select()
penguins %>% #From the penguins data set
  select(starts_with('b')) # selecting columns that start with 'b' and using starts_with

# A tibble: 333 × 3
   bill_length_mm bill_depth_mm body_mass_g
            <dbl>         <dbl>       <int>
 1           39.1          18.7        3750
 2           39.5          17.4        3800
 3           40.3          18          3250
 4           36.7          19.3        3450
 5           39.3          20.6        3650
 6           38.9          17.8        3625
 7           39.2          19.6        4675
 8           41.1          17.6        3200
 9           38.6          21.2        3800
10           34.6          21.1        4400
# … with 323 more rows
rename()

Now that we have viewed and selected for different columns and such, we manipulate our data set further. We will start by renaming some columns. Notice with rename, there are two methods you can use. One without quotation marks, and one with.

In this example, using the rename function, I am changing ‘species’ to ‘Species and ’year’ to ‘Year’.

# rename()
penguins %>%
  select(species, bill_length_mm, year) %>% #selecting the columns I want to look at
  rename( #rename function. notice here the two methods of changing names
    Species = species, #changing species to Species without quotes
    "Year" = year #changing year to Year with quotes
  )

# A tibble: 333 × 3
   Species bill_length_mm  Year
   <fct>            <dbl> <int>
 1 Adelie            39.1  2007
 2 Adelie            39.5  2007
 3 Adelie            40.3  2007
 4 Adelie            36.7  2007
 5 Adelie            39.3  2007
 6 Adelie            38.9  2007
 7 Adelie            39.2  2007
 8 Adelie            41.1  2007
 9 Adelie            38.6  2007
10 Adelie            34.6  2007
# … with 323 more rows

arrange()

let’s arrange some stuff this is equivalent to sort!

One of the first steps we take in Excel is the sorting of our data sets. Whether that be the sorting of plots, or dates, or anything; we start by sorting. The same is possible in R. We do this using the arrange function.

In this example, we will be sorting by bill length in an increasing order (smallest to largest). Notice here that R will default to the order of small-large with the arrange function.

# select() and arrange()
penguins %>%
  select(species, bill_length_mm, year) %>% 
  arrange(bill_length_mm) #I want to look at bill length in an increasing order from      smallest to largest 

# A tibble: 333 × 3
   species bill_length_mm  year
   <fct>            <dbl> <int>
 1 Adelie            32.1  2009
 2 Adelie            33.1  2008
 3 Adelie            33.5  2008
 4 Adelie            34    2008
 5 Adelie            34.4  2007
 6 Adelie            34.5  2008
 7 Adelie            34.6  2007
 8 Adelie            34.6  2008
 9 Adelie            35    2008
10 Adelie            35    2009
# … with 323 more rows

In this example, we will be sorting by bill length in a decreasing order (largest to smallest). Notice here, we need the arrange function to tell R we will be changing the order. Once that command is established, we can further command the order.

In this example, I use the arrange function, followed by the desc function (descending), commanding the order of bill length to go from big to small values.

# select(), arrange(), and desc()
penguins %>%
  select(species, bill_length_mm, year) %>% 
  arrange(desc(bill_length_mm)) #using the desc() function to command the order from      largest to smallest 

# A tibble: 333 × 3
   species   bill_length_mm  year
   <fct>              <dbl> <int>
 1 Gentoo              59.6  2007
 2 Chinstrap           58    2007
 3 Gentoo              55.9  2009
 4 Chinstrap           55.8  2009
 5 Gentoo              55.1  2009
 6 Gentoo              54.3  2008
 7 Chinstrap           54.2  2008
 8 Chinstrap           53.5  2008
 9 Gentoo              53.4  2009
10 Chinstrap           52.8  2008
# … with 323 more rows

Now, let’s say we want to see bill length in the same descending order, but we want order this by year. This is done with a very simple addition to our arrange() section. To accomplish this, we add the year variable first (remembering the the default for arrange is small-large) followed by the bill length command (which is the same as the previous example.)

# select() and arrange()
penguins %>%
  select(species, bill_length_mm, year) %>% 
  arrange(year, desc(bill_length_mm)) #year and bill separated by a comma

# A tibble: 333 × 3
   species   bill_length_mm  year
   <fct>              <dbl> <int>
 1 Gentoo              59.6  2007
 2 Chinstrap           58    2007
 3 Chinstrap           52.7  2007
 4 Chinstrap           52    2007
 5 Chinstrap           52    2007
 6 Chinstrap           51.7  2007
 7 Chinstrap           51.3  2007
 8 Chinstrap           51.3  2007
 9 Chinstrap           51.3  2007
10 Chinstrap           50.6  2007
# … with 323 more rows

filter()

Within R, we also have the ability to subset out data sets and pull out rows with specific values. Let’s say I only want to look at data from 2007. To accomplish this, we will use the filter function.

In this example, we will be adding the filter function as well as recall our knowledge of (operators) within R.

# select() and filter()
penguins %>%
  select(species, bill_length_mm, bill_depth_mm, year) %>% 
  filter(year == 2007) #using the '==' operator to show everything with the year 2007

# A tibble: 103 × 4
   species bill_length_mm bill_depth_mm  year
   <fct>            <dbl>         <dbl> <int>
 1 Adelie            39.1          18.7  2007
 2 Adelie            39.5          17.4  2007
 3 Adelie            40.3          18    2007
 4 Adelie            36.7          19.3  2007
 5 Adelie            39.3          20.6  2007
 6 Adelie            38.9          17.8  2007
 7 Adelie            39.2          19.6  2007
 8 Adelie            41.1          17.6  2007
 9 Adelie            38.6          21.2  2007
10 Adelie            34.6          21.1  2007
# … with 93 more rows

What if I want to see within the year 2007, which penguins have bill lengths higher than the mean of them all? This can be accomplished by, again, adding an operator, but also calling another function. We will command R further with mean function from base R. Notice I am separating each line in the filter function with a comma. This allows me to add multiple commands within the same function.

# select(), filter(), and mean()

penguins %>%
  select(species, bill_length_mm, year) %>% 
  filter(
    year == 2007,#using the '==' operator to show everything with the year 2007
    bill_length_mm < mean(bill_length_mm), # using the '<' to to view every row where the bill length is less than the avg bill length 
  ) 

# A tibble: 49 × 3
   species bill_length_mm  year
   <fct>            <dbl> <int>
 1 Adelie            39.1  2007
 2 Adelie            39.5  2007
 3 Adelie            40.3  2007
 4 Adelie            36.7  2007
 5 Adelie            39.3  2007
 6 Adelie            38.9  2007
 7 Adelie            39.2  2007
 8 Adelie            41.1  2007
 9 Adelie            38.6  2007
10 Adelie            34.6  2007
# … with 39 more rows
…
#the output is the same!

Now that we only the data we want to see, let’s create some new columns and row values. Let’s say we want to add a new column combining species and year and a new column with the rounded values of bill length. We will be using the mutate function here. Along with this, we then want to rearrange our data set for viewing purposes of our new variables. This will be done with the select function.

In this example, I have created the column ‘sp_year’ which will contain both species and year, but keep their respective values separated by a dash. I then created a new column of the rounded bill length values using the round function. Notice with these new columns, the first step is to name the new column and then command R what to put in. Lastly, using the select function, I command R to order this data set as follows.

penguins %>%
  select(species, bill_length_mm, year) %>% 
  mutate( #mutate()
    sp_year = paste(species, "-", year), #adding a new column named 'sp_year' and pasting the species column and year column with a dash between them. 
    rn_bill_length_mm = round(bill_length_mm) #creating a column of rounded bill lengths 
  ) %>% 
  select(species, year, sp_year, bill_length_mm, rn_bill_length_mm) #placing these new columns an order I would like 

# A tibble: 333 × 5
   species  year sp_year       bill_length_mm rn_bill_length_mm
   <fct>   <int> <chr>                  <dbl>             <dbl>
 1 Adelie   2007 Adelie - 2007           39.1                39
 2 Adelie   2007 Adelie - 2007           39.5                40
 3 Adelie   2007 Adelie - 2007           40.3                40
 4 Adelie   2007 Adelie - 2007           36.7                37
 5 Adelie   2007 Adelie - 2007           39.3                39
 6 Adelie   2007 Adelie - 2007           38.9                39
 7 Adelie   2007 Adelie - 2007           39.2                39
 8 Adelie   2007 Adelie - 2007           41.1                41
 9 Adelie   2007 Adelie - 2007           38.6                39
10 Adelie   2007 Adelie - 2007           34.6                35
# … with 323 more rows
…
